Assignment 3
…
In this step, we decided to remove Year predictor from classification. This was done because of the low contribution of Year with respect to other variables contribution as a strong or moderate predictor. According to the correlation plot and table, we see that bill_length_mm and body_mass_g has a moderate correlation of 0.589. Body mass has a positive impact on length of bill. Conversely, bill_depth_mm is negatively related to bill_length_mm and body_mass_g. Furthermore, we see that (bill_length_mm with flipper_length_mm), (bill_length_mm with body_mass_g), (bill_depth_mm with bill_depth_mm), (flipper_length_mm with bill_depth_mm) have a moderate correlation. We will use all of the numeric variables with the exception of Year. Year does not provide the same level of significance as bill length, depth and body mass.

(Q1b) KNN - Data Prep

Encode Categorical Variables

KNN works well when all perdictor data has been converted to numerics with the exception of the target variable (species).

org_penguins_df <- penguins_df
penguins_df <- penguins_df %>% select(-year) %>%
mutate_if(is.factor, as.numeric)
penguins_df$species <- org_penguins_df$species 
print(penguins_df)

## # A tibble: 333 x 7
##    species island bill_length_mm bill_depth_mm flipper_length_mm body_mass_g
##    <fct>    <dbl>          <dbl>         <dbl>             <int>       <int>
##  1 Adelie       3           39.1          18.7               181        3750
##  2 Adelie       3           39.5          17.4               186        3800
##  3 Adelie       3           40.3          18                 195        3250
##  4 Adelie       3           36.7          19.3               193        3450
##  5 Adelie       3           39.3          20.6               190        3650
##  6 Adelie       3           38.9          17.8               181        3625
##  7 Adelie       3           39.2          19.6               195        4675
##  8 Adelie       3           41.1          17.6               182        3200
##  9 Adelie       3           38.6          21.2               191        3800
## 10 Adelie       3           34.6          21.1               198        4400
## # ... with 323 more rows, and 1 more variable: sex <dbl>
…
