What makes a Hollywood movie profitable?
…
##   <int> <chr>        <chr>            <dbl>          <dbl>           <dbl>
## 1  2974 4/2/2010     Tau ~          4000000         129078        38899792
## 2  2975 4/2/2010     Tau ~          4000000         129078        38899792
## # ... with 3 more variables: distributor <chr>, mpaa_rating <chr>,
## #   genre <chr>
> # id == 2974, 2975
> 
> # let's remove either one of these identical rows
> df <- df %>%
+         dplyr::filter(X1 != 2974)
> 
> # is there any movie that has 0 or even negative domestic/worldwide gross?
> df %>%
+         dplyr::filter(domestic_gross <=0 | worldwide_gross <= 0)
## # A tibble: 66 x 9
##       X1 release_date movie production_budg~ domestic_gross worldwide_gross
##    <int> <chr>        <chr>            <dbl>          <dbl>           <dbl>
##  1    31 12/21/2018   Aqua~        160000000              0               0
##  2   229 3/15/2019    Wond~        100000000              0               0
##  3  1031 11/11/2016   USS ~         40000000              0         1641255
##  4  1089 4/14/2017    Quee~         36000000              0         1578543
##  5  1184 3/13/2015    The ~         35000000              0           11106
##  6  1360 12/14/2007   Good~         30000000              0         2717302
##  7  1446 3/17/2015    Acci~         26000000              0          135436
##  8  1567 7/8/2011     Iron~         25000000              0         5297411
##  9  1826 3/31/2004    The ~         20000000              0         5918742
## 10  1827 8/29/2014    Dweg~         20000000              0               0
## # ... with 56 more rows, and 3 more variables: distributor <chr>,
## #   mpaa_rating <chr>, genre <chr>
…
