data_621_hw1_moneyball
…
broom::glance(finalModelSqrt)

## # A tibble: 1 x 11
##   r.squared adj.r.squared sigma statistic   p.value    df logLik    AIC    BIC
##       <dbl>         <dbl> <dbl>     <dbl>     <dbl> <int>  <dbl>  <dbl>  <dbl>
## 1     0.543         0.528  10.7      34.6 1.49e-221    54 -6006. 12122. 12418.
## # ... with 2 more variables: deviance <dbl>, df.residual <int>

broom::tidy(finalModelSqrt) %>% arrange(p.value)

## # A tibble: 54 x 5
##    term                             estimate std.error statistic  p.value
##    <chr>                               <dbl>     <dbl>     <dbl>    <dbl>
##  1 TEAM_PITCHING_H:TEAM_PITCHING_BB  -0.171     0.0218     -7.84 8.55e-15
##  2 TEAM_PITCHING_HR                 -68.1       9.38       -7.26 6.30e-13
##  3 TEAM_BATTING_BB:TEAM_FIELDING_E   -0.860     0.119      -7.24 7.22e-13
##  4 TEAM_PITCHING_H:TEAM_PITCHING_SO   0.0863    0.0137      6.28 4.44e-10
##  5 TEAM_BATTING_3B:TEAM_PITCHING_H   -0.226     0.0366     -6.18 7.95e-10
##  6 TEAM_BATTING_HR                   64.3      10.6         6.07 1.58e- 9
##  7 TEAM_FIELDING_E                  -16.0       2.68       -5.96 3.06e- 9
##  8 TEAM_BATTING_HR:TEAM_PITCHING_H    1.25      0.217       5.73 1.20e- 8
##  9 TEAM_BATTING_H:TEAM_PITCHING_SO    0.360     0.0633      5.69 1.48e- 8
## 10 TEAM_BATTING_SO:TEAM_FIELDING_E    0.562     0.0990      5.68 1.62e- 8
## # ... with 44 more rows
…
